<?xml version="1.0" encoding="UTF-8"?>
<svg width="24px" height="24px" viewBox="0 0 24 24" version="1.1" xmlns="http://www.w3.org/2000/svg" xmlns:xlink="http://www.w3.org/1999/xlink">
    <!-- Generator: Sketch 55.2 (78181) - https://sketchapp.com -->
    <title>Utility/Icon/Large-24px/Crest</title>
    <desc>Created with Sketch.</desc>
    <g id="Utility/Icon/Large-24px/Crest" stroke="none" stroke-width="1" fill="none" fill-rule="evenodd">
        <path d="M19.6200114,14.5485625 L19.6200114,5.58333333 L21.0833333,5.58333333 L21.0833333,14.8337604 C21.0833333,15.0775937 20.9728525,15.309816 20.7789624,15.4745486 L11.9375713,23 L8.25,19.8613715 L9.19457431,18.7525104 L11.9375713,21.0870694 L19.6200114,14.5485625 Z M2.75,1 L21.0833333,1 L21.0833333,2.43042913 L4.21666667,2.43042913 L4.21666667,14.1270481 L6.941,16.4078674 L5.995,17.5 L3.05433333,15.0403771 C2.86,14.8773082 2.75,14.6484395 2.75,14.4081274 L2.75,1 Z M11.9166669,5.58333333 L16.0416669,10.1666667 L11.9166669,14.75 L7.79166695,10.1666667 L11.9166669,5.58333333 Z M11.9166663,7.7375 L9.7166663,10.1666667 L11.9166663,12.5958333 L14.1166663,10.1666667 L11.9166663,7.7375 Z" id="↳-◾️-Icon-Colour" fill="#10141B"></path>
    </g>
</svg>