<?xml version="1.0" encoding="UTF-8"?>
<svg width="16px" height="16px" viewBox="0 0 16 16" version="1.1" xmlns="http://www.w3.org/2000/svg" xmlns:xlink="http://www.w3.org/1999/xlink">
    <!-- Generator: sketchtool 52.5 (67469) - http://www.bohemiancoding.com/sketch -->
    <title>350857EB-594D-4756-80D5-899D83CB5874</title>
    <desc>Created with sketchtool.</desc>
    <g id="Designs" stroke="none" stroke-width="1" fill="none" fill-rule="evenodd">
        <g id="T23.1_Shop_PDP_01D" transform="translate(-834.000000, -954.000000)" fill="#202020" fill-rule="nonzero">
            <g id="order-details" transform="translate(802.000000, 538.000000)">
                <g id="delivery">
                    <g id="Group-4">
                        <g transform="translate(0.000000, 385.000000)">
                            <g>
                                <g transform="translate(32.000000, 29.000000)">
                                    <g>
                                        <g id="time-countdown" transform="translate(0.000000, 2.000000)">
                                            <path d="M12.7,0.3 C12.3,-0.1 11.7,-0.1 11.3,0.3 C10.9,0.7 10.9,1.3 11.3,1.7 L12.1,2.5 L11.2,3.4 C10,2.5 8.6,2 7,2 C3.1,2 0,5.1 0,9 C0,12.9 3.1,16 7,16 C10.9,16 14,12.9 14,9 C14,7.4 13.5,6 12.6,4.8 L13.5,3.9 L14.3,4.7 C14.5,4.9 14.7,5 15,5 C15.3,5 15.5,4.9 15.7,4.7 C16.1,4.3 16.1,3.7 15.7,3.3 L12.7,0.3 Z M7,14 C4.2,14 2,11.8 2,9 C2,6.2 4.2,4 7,4 C9.8,4 12,6.2 12,9 C12,11.8 9.8,14 7,14 Z" id="Shape"></path>
                                            <polygon id="Shape" points="8 6 6 6 6 10 10 10 10 8 8 8"></polygon>
                                        </g>
                                    </g>
                                </g>
                            </g>
                        </g>
                    </g>
                </g>
            </g>
        </g>
    </g>
</svg>